test3.csv

#Digilent WaveForms Oscilloscope Acquisition,
#Device Name: Discovery2NI,
#Serial Number: SN:210321AA1BBA,
#Date Time: 2021-11-06 13:26:38.987,
#Sample rate: 4e+06Hz,
#Samples: 32768,
#Trigger: Source: Channel 1 Type: Edge Condition: Rising Level: 0 V Hyst.: Auto HoldOff: 0 s,
#Channel 2: Range: 500 mV/div Offset: 0 V Attenuation: 1 X Zero: -1.199002298 V,
,
Time (s),Channel 2 (V)
-0.004096,-0.002510349
-0.00409575,0.004905251
-0.0040955,-0.003184495
-0.00409525,-0.001836204
-0.004095,0.00355696
-0.00409475,0.004568178
-0.0040945,-0.00385864
-0.00409425,0.008275978
-0.004094,-0.008577658
-0.00409375,0.004568178
-0.0040935,-0.005544004
-0.00409325,0.011309632
-0.004093,0.000523305
-0.00409275,-0.013296676
-0.0040925,0.015017432
-0.00409225,0.005916469
-0.004092,-0.010263022
-0.00409175,0.022770105
-0.0040915,-0.017341549
-0.00409125,0.01097256
-0.004091,0.01468036
-0.00409075,-0.019026912
-0.0040905,0.026814977
-0.00409025,-0.008240585
-0.00409,-0.002847422
-0.00408975,0.024455468
-0.0040895,-0.014307894
-0.00408925,0.008950123
-0.004089,0.017714014
-0.00408875,-0.022060567
-0.0040885,0.032882286
-0.00408825,-0.01498204
-0.004088,0.004905251
-0.00408775,0.01973645
-0.0040875,-0.020712276
-0.00408725,0.013669141
-0.004087,0.012657923
-0.00408675,-0.024420076
-0.0040865,0.030522777
-0.00408625,-0.022060567
-0.004086,0.003894033
-0.00408575,0.016702796
-0.0040855,-0.026105439
-0.00408525,0.020747669
-0.004085,-0.00385864
-0.00408475,-0.016667403
-0.0040845,0.023107178
-0.00408425,-0.013970821
-0.004084,-0.00385864
-0.00408375,0.025466687
-0.0040835,-0.03116153
-0.00408325,0.015354505
-0.004083,0.00355696
-0.00408275,-0.00385864
-0.0040825,-0.008914731
-0.00408225,0.003219887
-0.004082,-0.001162058
-0.00408175,0.008950123
-0.0040815,-0.005544004
-0.00408125,0.00355696
-0.004081,-0.000487913
-0.00408075,0.002545742
-0.0040805,0.001534524
-0.00408025,0.005916469
-0.00408,0.001871596
-0.00407975,-0.00015084
-0.0040795,0.008950123
-0.00407925,-0.004532785
-0.004079,0.009624269
-0.00407875,0.000186233
-0.0040785,0.004568178
-0.00407825,0.000186233
-0.004078,0.009961342
-0.00407775,-0.004869858
-0.0040775,0.011646705
-0.00407725,-0.004195713
-0.004077,0.007601832
-0.00407675,0.000186233
-0.0040765,0.006253542
-0.00407625,-0.00015084
-0.004076,0.002882814
-0.00407575,0.001871596
-0.0040755,0.000523305
-0.00407525,-0.000824985
-0.004075,0.003219887
-0.00407475,-0.004869858
-0.0040745,0.002208669
-0.00407425,-0.003521567
-0.004074,-0.005881076
-0.00407375,0.008275978
-0.0040735,-0.010937167
-0.00407325,0.004568178
-0.004073,0.001534524
-0.00407275,0.001871596
-0.0040725,-0.00756644
-0.00407225,0.015691578
-0.004072,-0.012285458
-0.00407175,0.001197451
-0.0040715,-0.00015084
-0.00407125,-0.00015084
-0.004071,-0.002510349
-0.00407075,0.003894033
-0.0040705,-0.001499131
-0.00407025,0.003219887
-0.00407,0.000523305
-0.00406975,0.002208669
-0.0040695,0.006590614
-0.00406925,-0.000487913
-0.004069,0.009961342
-0.00406875,-0.002847422
-0.0040685,0.004905251
-0.00406825,0.003219887
-0.004068,0.013332069
-0.00406775,-0.015993258
-0.0040675,0.012320851
-0.00406725,0.016365723
-0.004067,-0.014307894
-0.00406675,0.020410596
-0.0040665,0.000523305
-0.00406625,-0.011611312
-0.004066,0.03085985
-0.00406575,-0.022734712
-0.0040655,0.015691578
-0.00406525,0.006590614
-0.004065,-0.021049349
-0.00406475,0.02715205
-0.0040645,-0.013970821
-0.00406425,-0.006218149
-0.004064,0.021758887
-0.00406375,-0.02374593
-0.0040635,0.010635487
-0.00406325,0.008613051
-0.004063,-0.022397639
-0.00406275,0.018388159
-0.0040625,-0.007903513
-0.00406225,-0.003184495
-0.004062,0.011309632
-0.00406175,-0.018352767
-0.0040615,0.020410596
-0.00406125,-0.001499131
-0.004061,-0.013296676
-0.00406075,0.020747669
-0.0040605,-0.016330331
-0.00406025,0.000186233
-0.00406,0.01097256
-0.00405975,-0.020712276
-0.0040595,0.022433032
-0.00405925,-0.00756644
-0.004059,-0.008240585
-0.00405875,0.024792541
-0.0040585,-0.01868984
-0.00405825,0.010298414
-0.004058,0.013669141
-0.00405775,-0.006892294
-0.0040575,0.003894033
-0.00405725,0.000186233
-0.004057,0.00355696
-0.00405675,0.015017432
-0.0040565,0.000860378
-0.00405625,-0.004195713
-0.004056,0.009624269
-0.00405575,0.005242323
-0.0040555,0.005916469
-0.00405525,0.00355696
-0.004055,0.002208669
-0.00405475,0.002882814
-0.0040545,-0.001162058
-0.00405425,0.009624269
-0.004054,0.001871596
-0.00405375,-0.003521567
-0.0040535,0.000860378
-0.00405325,-0.001836204
-0.004053,0.003894033
-0.00405275,0.005579396
-0.0040525,-0.018015694
-0.00405225,0.015691578
-0.004052,-0.002510349
-0.00405175,-0.013970821
-0.0040515,0.021758887
-0.00405125,-0.024083003
-0.004051,0.005579396
-0.00405075,0.015691578
-0.0040505,-0.020375203
-0.00405025,0.022770105
-0.00405,-0.005881076
-0.00404975,-0.011611312
-0.0040495,0.021758887
-0.00404925,-0.018015694
-0.004049,0.01097256
-0.00404875,0.004568178
-0.0040485,-0.015656185
-0.00404825,0.022433032
-0.004048,-0.010937167
-0.00404775,-0.002173276
-0.0040475,0.019399378
-0.00404725,-0.015993258
-0.004047,0.015691578
-0.00404675,0.000860378
-0.0040465,-0.011948385
-0.00404625,0.026814977
-0.004046,-0.012959603
-0.00404575,0.004568178
-0.0040455,0.021084741
-0.00404525,-0.019026912
-0.004045,0.023107178
-0.00404475,0.002882814
-0.0040445,-0.014644967
-0.00404425,0.032882286
-0.004044,-0.02003813
-0.00404375,0.010298414
-0.0040435,0.024118396
-0.00404325,-0.02374593
-0.004043,0.005916469
-0.00404275,0.016365723
-0.0040425,-0.006892294
-0.00404225,-0.002510349
-0.004042,0.006253542
-0.00404175,-0.005206931
-0.0040415,0.003219887
-0.00404125,0.003894033
-0.004041,-0.002847422
-0.00404075,-0.001836204
-0.0040405,0.003219887
-0.00404025,-0.001162058
-0.00404,0.00355696
-0.00403975,0.001534524
-0.0040395,0.001534524
-0.00403925,0.004231105
-0.004039,-0.000487913
-0.00403875,0.00355696
-0.0040385,-0.001499131
-0.00403825,0.001871596
-0.004038,0.002208669
-0.00403775,0.001534524
-0.0040375,-0.003184495
-0.00403725,0.004231105
-0.004037,0.001871596
-0.00403675,0.000523305
-0.0040365,0.001871596
-0.00403625,0.006590614
-0.004036,0.000186233
-0.00403575,0.001871596
-0.0040355,0.000860378
-0.00403525,0.005242323
-0.004035,0.001871596
-0.00403475,0.003219887
-0.0040345,0.009961342
-0.00403425,0.000186233
-0.004034,-0.000824985
-0.00403375,0.014006214
-0.0040335,0.001197451
-0.00403325,-0.000824985
-0.004033,0.01097256
-0.00403275,0.00355696
-0.0040325,0.003219887
-0.00403225,0.005916469
-0.004032,-0.000824985
-0.00403175,0.003894033
-0.0040315,0.002882814
-0.00403125,-0.001162058
-0.004031,0.002545742
-0.00403075,0.000186233
-0.0040305,-0.001836204
-0.00403025,0.000186233
-0.00403,0.000860378
-0.00402975,-0.004195713
-0.0040295,0.000523305
-0.00402925,0.000523305
-0.004029,-0.001162058
-0.00402875,-0.000487913
-0.0040285,0.002208669
-0.00402825,-0.005881076
-0.004028,0.004568178
-0.00402775,0.018388159
-0.0040275,-0.022397639
-0.00402725,0.005242323
-0.004027,0.010635487
-0.00402675,-0.02003813
-0.0040265,0.026814977
-0.00402625,-0.012959603
-0.004026,-0.016667403
-0.00402575,0.027489123
-0.0040255,-0.015993258
-0.00402525,0.012994996
-0.004025,0.007601832
-0.00402475,-0.021386421
-0.0040245,0.026814977
-0.00402425,-0.012285458
-0.004024,0.002545742
-0.00402375,0.022770105
-0.0040235,-0.022397639
-0.00402325,0.021084741
-0.004023,0.005579396
-0.00402275,-0.013633749
-0.0040225,0.02715205
-0.00402225,-0.009251803
-0.004022,0.003894033
-0.00402175,0.017714014
-0.0040215,-0.012622531
-0.00402125,0.017714014
-0.004021,-0.002510349
-0.00402075,-0.004532785
-0.0040205,0.021084741
-0.00402025,-0.022060567
-0.00402,0.015017432
-0.00401975,0.008275978
-0.0040195,-0.020375203
-0.00401925,0.021758887
-0.004019,-0.009925949
-0.00401875,-0.009925949
-0.0040185,0.02344425
-0.00401825,-0.018352767
-0.004018,-0.000487913
-0.00401775,0.007938905
-0.0040175,-0.003521567
-0.00401725,0.006590614
-0.004017,-0.005206931
-0.00401675,0.001871596
-0.0040165,0.00726476
-0.00401625,-0.002510349
-0.004016,0.001534524
-0.00401575,0.002545742
-0.0040155,-0.004869858
-0.00401525,0.000860378
-0.004015,0.008613051
-0.00401475,-0.004869858
-0.0040145,0.004568178
-0.00401425,-0.003521567
-0.004014,0.004905251
-0.00401375,0.001871596
-0.0040135,0.012657923
-0.00401325,-0.009251803
-0.004013,0.000523305
-0.00401275,0.00726476
-0.0040125,0.012657923
-0.00401225,-0.013970821
-0.004012,0.021084741
-0.00401175,-0.004532785
-0.0040115,0.001197451
-0.00401125,0.027489123
-0.004011,-0.022060567
-0.00401075,0.018725232
-0.0040105,0.003894033
-0.00401025,-0.009588876
-0.00401,0.021084741
-0.00400975,-0.007903513
-0.0040095,-0.002847422
-0.00400925,0.027489123
-0.004009,-0.030487385
-0.00400875,0.027489123
-0.0040085,-0.005206931
-0.00400825,-0.01498204
-0.004008,0.021758887
-0.00400775,-0.010600094
-0.0040075,-0.009925949
-0.00400725,0.024455468
-0.004007,-0.026442512
-0.00400675,0.012657923
-0.0040065,0.001197451
-0.00400625,-0.008240585
-0.004006,0.017039869
-0.00400575,-0.017341549
-0.0040055,0.010635487
-0.00400525,0.004905251
-0.004005,-0.017004476
-0.00400475,0.018725232
-0.0040045,-0.004195713
-0.00400425,-0.021723494
-0.004004,0.029848632
-0.00400375,-0.026442512
-0.0040035,0.018051087
-0.00400325,0.005579396
-0.004003,-0.015319112
-0.00400275,0.016702796
-0.0040025,-0.002173276
-0.00400225,-0.008577658
-0.004002,0.023781323
-0.00400175,-0.01868984
-0.0040015,0.015691578
-0.00400125,0.003894033
-0.004001,-0.009925949
-0.00400075,0.02715205
-0.0040005,-0.004195713
-0.00400025,0.000523305
-0.004,0.024118396
-0.00399975,-0.015993258
-0.0039995,0.016702796
-0.00399925,0.009624269
-0.003999,-0.020375203
-0.00399875,0.034904723
-0.0039985,-0.021049349
-0.00399825,0.00726476
-0.003998,0.016702796
-0.00399775,-0.021049349
-0.0039975,0.011309632
-0.00399725,0.006927687
-0.003997,-0.022060567
-0.00399675,0.033556432
-0.0039965,-0.029139094
-0.00399625,0.009961342
-0.003996,0.010635487
-0.00399575,-0.024420076
-0.0039955,0.02344425
-0.00399525,-0.005881076
-0.003995,-0.008914731
-0.00399475,0.022433032
-0.0039945,-0.012959603
-0.00399425,0.003219887
-0.003994,0.012657923
-0.00399375,-0.023408858
-0.0039935,0.02344425
-0.00399325,-0.017341549
-0.003993,-0.000824985
-0.00399275,0.015354505
-0.0039925,-0.016667403
-0.00399225,0.015017432
-0.003992,0.004231105
-0.00399175,-0.016667403
-0.0039915,0.032208141
-0.00399125,-0.025431294
-0.003991,0.011983778
-0.00399075,0.007938905
-0.0039905,-0.015319112
-0.00399025,0.024118396
-0.00399,-0.006555222
-0.00398975,-0.004195713
-0.0039895,0.026140832
-0.00398925,-0.014644967
-0.003989,0.01097256
-0.00398875,0.021421814
-0.0039885,-0.029476167
-0.00398825,0.029174486
-0.003988,0.001534524
-0.00398775,-0.004195713
-0.0039875,0.005579396
-0.00398725,0.005242323
-0.003987,-0.002173276
-0.00398675,0.007601832
-0.0039865,-0.007903513
-0.00398625,0.006253542
-0.003986,-0.008240585
-0.00398575,0.004231105
-0.0039855,-0.00015084
-0.00398525,-0.00385864
-0.003985,-0.000824985
-0.00398475,0.001534524
-0.0039845,-0.004195713
-0.00398425,0.003894033
-0.003984,0.002208669
-0.00398375,-0.00385864
-0.0039835,0.005242323
-0.00398325,-0.005881076
-0.003983,0.00726476
-0.00398275,-0.001499131
-0.0039825,0.002545742
-0.00398225,-0.008240585
-0.003982,0.006253542
-0.00398175,-0.003184495
-0.0039815,0.006253542
-0.00398125,-0.005206931
-0.003981,0.006253542
-0.00398075,-0.006892294
-0.0039805,0.009624269
-0.00398025,0.000860378
-0.00398,-0.000487913
-0.00397975,-0.00015084
-0.0039795,0.001534524
-0.00397925,0.005242323
-0.003979,0.005579396
-0.00397875,-0.00015084
-0.0039785,0.001871596
-0.00397825,0.012320851
-0.003978,-0.002847422
-0.00397775,0.009287196
-0.0039775,0.003894033
-0.00397725,0.004905251
-0.003977,-0.004869858
-0.00397675,0.016365723
-0.0039765,-0.002847422
-0.00397625,0.008275978
-0.003976,-0.001162058
-0.00397575,0.008613051
-0.0039755,-0.006218149
-0.00397525,0.006590614
-0.003975,-0.001836204
-0.00397475,-0.001499131
-0.0039745,0.001871596
-0.00397425,-0.001499131
-0.003974,0.002208669
-0.00397375,-0.002510349
-0.0039735,0.004231105
-0.00397325,-0.002847422
-0.003973,0.004905251
-0.00397275,-0.003184495
-0.0039725,0.001871596
-0.00397225,0.001534524
-0.003972,0.005579396
-0.00397175,-0.006218149
-0.0039715,0.006590614
-0.00397125,-0.006555222
-0.003971,0.005579396
-0.00397075,-0.006892294
-0.0039705,0.007601832
-0.00397025,-0.006555222
-0.00397,0.008613051
-0.00396975,-0.001499131
-0.0039695,0.001871596
-0.00396925,0.008613051
-0.003969,-0.001499131
-0.00396875,-0.002510349
-0.0039685,0.010635487
-0.00396825,0.000523305
-0.003968,-0.004532785
-0.00396775,0.019062305
-0.0039675,-0.003521567
-0.00396725,0.004568178
-0.003967,0.011309632
-0.00396675,0.004568178
-0.0039665,-0.00385864
-0.00396625,0.016365723
-0.003966,-0.004195713
-0.00396575,0.009624269
-0.0039655,0.002882814
-0.00396525,0.003219887
-0.003965,0.006253542
-0.00396475,0.001534524
-0.0039645,0.000186233
-0.00396425,0.004568178
-0.003964,-0.001499131
-0.00396375,-0.000487913
-0.0039635,0.001534524
-0.00396325,-0.001499131
-0.003963,-0.000824985
-0.00396275,-0.001162058
-0.0039625,0.000186233
-0.00396225,-0.000824985
-0.003962,0.00355696
-0.00396175,-0.00015084
-0.0039615,0.001871596
-0.00396125,0.005579396
-0.003961,-0.004532785
-0.00396075,0.004231105
-0.0039605,0.005242323
-0.00396025,-0.005881076
-0.00396,0.00355696
-0.00395975,-0.005544004
-0.0039595,-0.00015084
-0.00395925,0.005242323
-0.003959,-0.000487913
-0.00395875,0.00355696
-0.0039585,0.003219887
-0.00395825,-0.00756644
-0.003958,0.012994996
-0.00395775,0.007938905
-0.0039575,-0.025094221
-0.00395725,0.021758887
-0.003957,0.003894033
-0.00395675,-0.008914731
-0.0039565,0.022770105
-0.00395625,-0.017004476
-0.003956,0.017039869
-0.00395575,0.013332069
-0.0039555,-0.015993258
-0.00395525,0.02715205
-0.003955,-0.007903513
-0.00395475,-0.004869858
-0.0039545,0.026814977
-0.00395425,-0.021723494
-0.003954,0.015017432
-0.00395375,0.005242323
-0.0039535,-0.020712276
-0.00395325,0.024455468
-0.003953,0.000523305
-0.00395275,-0.009251803
-0.0039525,-0.000487913
-0.00395225,0.000523305
-0.003952,-0.00015084
-0.00395175,0.000523305
-0.0039515,-0.002510349
-0.00395125,-0.001836204
-0.003951,0.000860378
-0.00395075,0.001534524
-0.0039505,0.00355696
-0.00395025,-0.005881076
-0.00395,0.003894033
-0.00394975,-0.001162058
-0.0039495,0.003894033
-0.00394925,-0.002847422
-0.003949,-0.002510349
-0.00394875,-0.000824985
-0.0039485,-0.010937167
-0.00394825,0.001534524
-0.003948,0.023781323
-0.00394775,-0.019026912
-0.0039475,-0.008577658
-0.00394725,0.030522777
-0.003947,-0.019701058
-0.00394675,0.009624269
-0.0039465,0.007938905
-0.00394625,-0.018352767
-0.003946,0.025129614
-0.00394575,-0.006218149
-0.0039455,0.002208669
-0.00394525,0.01973645
-0.003945,-0.019026912
-0.00394475,0.022770105
-0.0039445,0.011983778
-0.00394425,-0.014307894
-0.003944,0.029848632
-0.00394375,-0.016667403
-0.0039435,0.005242323
-0.00394325,0.024118396
-0.003943,-0.010937167
-0.00394275,0.004905251
-0.0039425,0.004905251
-0.00394225,0.003219887
-0.003942,0.004231105
-0.00394175,-0.002510349
-0.0039415,0.002208669
-0.00394125,-0.003184495
-0.003941,0.00355696
-0.00394075,0.004568178
-0.0039405,-0.007229367
-0.00394025,0.003219887
-0.00394,0.002208669
-0.00393975,-0.003184495
-0.0039395,0.005916469
-0.00393925,-0.001836204
-0.003939,0.002882814
-0.00393875,0.000860378
-0.0039385,-0.002173276
-0.00393825,0.007601832
-0.003938,0.003219887
-0.00393775,-0.020712276
-0.0039375,0.017714014
-0.00393725,0.004231105
-0.003937,-0.018015694
-0.00393675,0.024455468
-0.0039365,-0.013633749
-0.00393625,-0.002510349
-0.003936,0.024792541
-0.00393575,-0.025094221
-0.0039355,0.020410596
-0.00393525,-0.000487913
-0.003935,-0.01498204
-0.00393475,0.032545214
-0.0039345,-0.013296676
-0.00393425,0.003894033
-0.003934,0.022095959
-0.00393375,-0.019701058
-0.0039335,0.024118396
-0.00393325,0.008613051
-0.003933,-0.009588876
-0.00393275,0.010298414
-0.0039325,0.005579396
-0.00393225,0.005579396
-0.003932,0.002882814
-0.00393175,0.001871596
-0.0039315,-0.00015084
-0.00393125,0.007938905
-0.003931,0.002882814
-0.00393075,0.000186233
-0.0039305,-0.000824985
-0.00393025,-0.00015084
-0.00393,-0.001499131
-0.00392975,0.004568178
-0.0039295,-0.000824985
-0.00392925,-0.007229367
-0.003929,0.004905251
-0.00392875,-0.005206931
-0.0039285,0.001534524
-0.00392825,0.013332069
-0.003928,-0.008577658
-0.00392775,-0.01127424
-0.0039275,0.02715205
-0.00392725,-0.018015694
-0.003927,-0.002847422
-0.00392675,0.015691578
-0.0039265,-0.025768367
-0.00392625,0.015017432
-0.003926,0.003219887
-0.00392575,-0.017341549
-0.0039255,0.022770105
-0.00392525,-0.012622531
-0.003925,0.005579396
-0.00392475,0.01602865
-0.0039245,-0.021049349
-0.00392425,0.022433032
-0.003924,-0.006892294
-0.00392375,-0.010600094
-0.0039235,0.03085985
-0.00392325,-0.009925949
-0.003923,0.002545742
-0.00392275,0.015017432
-0.0039225,0.002208669
-0.00392225,0.00355696
-0.003922,0.004231105
-0.00392175,0.00726476
-0.0039215,0.005242323
-0.00392125,0.007601832
-0.003921,0.002545742
-0.00392075,0.000523305
-0.0039205,0.00355696
-0.00392025,0.004568178
-0.00392,0.001197451
-0.00391975,0.002545742
-0.0039195,-0.000487913
-0.00391925,-0.001162058
-0.003919,0.000523305
-0.00391875,0.003894033
-0.0039185,0.000186233
-0.00391825,0.003219887
-0.003918,-0.016667403
-0.00391775,0.010635487
-0.0039175,0.015017432
-0.00391725,-0.023408858
-0.003917,0.018051087
-0.00391675,-0.002847422
-0.0039165,-0.002173276
-0.00391625,0.016702796
-0.003916,-0.018352767
-0.00391575,0.002545742
-0.0039155,0.008950123
-0.00391525,-0.018352767
-0.003915,0.01602865
-0.00391475,-0.001836204
-0.0039145,-0.008240585
-0.00391425,0.018051087
-0.003914,-0.016667403
-0.00391375,0.022770105
-0.0039135,-0.005206931
-0.00391325,-0.006892294
-0.003913,0.01097256
-0.00391275,0.001534524
-0.0039125,0.002882814
-0.00391225,0.012994996
-0.003912,-0.004532785
-0.00391175,0.012320851
-0.0039115,0.005579396
-0.00391125,0.009624269
-0.003911,-0.00015084
-0.00391075,0.008950123
-0.0039105,0.003219887
-0.00391025,0.005242323
-0.00391,0.006927687
-0.00390975,-0.000487913
-0.0039095,0.005242323
-0.00390925,-0.000487913
-0.003909,0.006927687
-0.00390875,-0.000824985
-0.0039085,0.005916469
-0.00390825,-0.004532785
-0.003908,0.00355696
-0.00390775,-0.005544004
-0.0039075,0.006253542
-0.00390725,-0.009251803
-0.003907,0.007601832
-0.00390675,-0.005544004
-0.0039065,0.002208669
-0.00390625,-0.00015084
-0.003906,0.005242323
-0.00390575,0.002882814
-0.0039055,-0.001162058
-0.00390525,0.004231105
-0.003905,-0.001162058
-0.00390475,0.000523305
-0.0039045,-0.000487913
-0.00390425,0.00355696
-0.003904,-0.004195713
-0.00390375,0.004231105
-0.0039035,-0.004532785
-0.00390325,0.010635487
-0.003903,-0.004195713
-0.00390275,0.004905251
-0.0039025,0.003894033
-0.00390225,0.001534524
-0.003902,-0.001836204
-0.00390175,0.012657923
-0.0039015,-0.006555222
-0.00390125,0.008950123
-0.003901,0.010298414
-0.00390075,0.002882814
-0.0039005,-0.002510349
-0.00390025,0.018725232
-0.0039,-0.002847422
-0.00389975,-0.00015084
-0.0038995,0.016365723
-0.00389925,-0.001836204
-0.003899,0.004568178
-0.00389875,0.003894033
-0.0038985,0.006590614
-0.00389825,-0.009251803
-0.003898,0.018051087
-0.00389775,0.003894033
-0.0038975,-0.016667403
-0.00389725,0.008950123
-0.003897,0.008275978
-0.00389675,-0.017678621
-0.0038965,0.026477905
-0.00389625,-0.023408858
-0.003896,0.006927687
-0.00389575,0.009287196
-0.0038955,-0.017341549
-0.00389525,0.019399378
-0.003895,-0.002510349
-0.00389475,-0.014644967
-0.0038945,0.028163268
-0.00389425,-0.019701058
-0.003894,0.005579396
-0.00389375,0.014343287
-0.0038935,-0.029476167
-0.00389325,0.022095959
-0.003893,-0.00756644
-0.00389275,-0.009925949
-0.0038925,0.018388159
-0.00389225,-0.009251803
-0.003892,0.001534524
-0.00389175,0.018388159
-0.0038915,-0.028464948
-0.00389125,0.032208141
-0.003891,-0.014644967
-0.00389075,-0.001162058
-0.0038905,0.022095959
-0.00389025,-0.015993258
-0.00389,0.011646705
-0.00388975,0.015354505
-0.0038895,-0.015993258
-0.00388925,0.026140832
-0.003889,-0.00385864
-0.00388875,0.002545742
-0.0038885,0.024455468
-0.00388825,-0.020375203
-0.003888,0.022433032
