test2.csv

#Digilent WaveForms Oscilloscope Acquisition
#Device Name: Discovery2NI
#Serial Number: SN:210321AA1BBA
#Date Time: 2021-10-11 11:36:54.384
#Sample rate: 4e+06Hz
#Samples: 32768
#Trigger: Source: Channel 1 Type: Edge Condition: Rising Level: 0 V Hyst.: Auto HoldOff: 0 s
#Channel 1: Range: 50 mV/div Offset: 225 mV Attenuation: 1 X Zero: 1.70421843 V

Time (s),Channel 1 (V)
-0.004096,-0.2313694448564108
-0.00409575,-0.2313694448564108
-0.0040955,-0.2226141821574574
-0.00409525,-0.1660417154872988
-0.004095,-0.3256568893064908
-0.00409475,-0.2242978865228252
-0.0040945,-0.09936702262604036
-0.00409425,-0.3829028377229071
-0.004094,-0.1222654019930072
-0.00409375,-0.2421451527935838
-0.0040935,-0.3243099258145286
-0.00409325,-0.06400923095771301
-0.004093,-0.3509124547839028
-0.00409275,-0.2034199523943681
-0.0040925,-0.1475209674702826
-0.00409225,-0.3785252063730103
-0.004092,-0.08758109206975728
-0.00409175,-0.2640333095409666
-0.0040915,-0.3000645829555113
-0.00409125,-0.09229546429264834
-0.004091,-0.3707801662935875
-0.00409075,-0.1694091242176446
-0.0040905,-0.1579599345344397
-0.00409025,-0.320942517084162
-0.00409,-0.2061138793786612
-0.00408975,-0.2189100325540426
-0.0040895,-0.2125119559663694
-0.00408925,-0.2320429266024839
-0.004089,-0.241471671047478
-0.00408875,-0.2236244047765999
-0.0040885,-0.2246346273956774
-0.00408825,-0.2168895873158343
-0.004088,-0.2306959631103374
-0.00408775,-0.2306959631103374
-0.0040875,-0.2296857404912274
-0.00408725,-0.2280020361260289
-0.004087,-0.219583514300143
-0.00408675,-0.2246346273956774
-0.0040865,-0.2263183317608608
-0.00408625,-0.2391144849362435
-0.004086,-0.2333898900946307
-0.00408575,-0.2138589194585043
-0.0040855,-0.2145324012045477
-0.00408525,-0.1980320984258115
-0.004085,-0.3552900861339012
-0.00408475,-0.09700983651478379
-0.0040845,-0.2367572988251645
-0.00408425,-0.3286875571640051
-0.004084,-0.08993827818101385
-0.00408375,-0.3438408964503883
-0.0040835,-0.1973586166799746
-0.00408325,-0.1360717777870362
-0.004083,-0.380208910738614
-0.00408275,-0.1054283583409937
-0.0040825,-0.2667272365252598
-0.00408225,-0.3014115464480358
-0.004082,-0.07209101191060518
-0.00408175,-0.3657290531975034
-0.0040815,-0.1822052773930585
-0.00408125,-0.1690723833446288
-0.004081,-0.3724638706584009
-0.00408075,-0.07141753016399766
-0.0040805,-0.2791866488276162
-0.00408025,-0.2734620539858559
-0.00408,-0.1980320984259187
-0.00407975,-0.2091445472359912
-0.0040795,-0.2327164083485573
-0.00407925,-0.2340633718407015
-0.004079,-0.2387777440632173
-0.00407875,-0.2158793646967243
-0.0040785,-0.2232876639035308
-0.00407825,-0.2232876639035308
-0.004078,-0.2306959631103374
-0.00407775,-0.2364205579519605
-0.0040775,-0.2239611456496269
-0.00407725,-0.2246346273956774
-0.004077,-0.2199202551731643
-0.00407675,-0.2290122587451675
-0.0040765,-0.236420557951947
-0.00407625,-0.229012258745154
-0.004076,-0.2283387769990477
-0.00407575,-0.2101547698551343
-0.0040755,-0.2168895873158343
-0.00407525,-0.2482064885082436
-0.004075,-0.298380878590266
-0.00407475,-0.0566009317508244
-0.0040745,-0.3640453488328543
-0.00407425,-0.2064506202515924
-0.004074,-0.148531190089498
-0.00407375,-0.3670760166901843
-0.0040735,-0.09094850080012384
-0.00407325,-0.2663904956522912
-0.004073,-0.3037687325592244
-0.00407275,-0.08320346072028073
-0.0040725,-0.3600044583560756
-0.00407225,-0.1737867555674807
-0.004072,-0.1593068980265657
-0.00407175,-0.3707801662935875
-0.0040715,-0.08859131468923173
-0.00407125,-0.2889521341456793
-0.004071,-0.2785131670815428
-0.00407075,-0.08690761032420576
-0.0040705,-0.3738108341503956
-0.00407025,-0.1545925258040524
-0.00407,-0.1902870583459382
-0.00406975,-0.3593309766098254
-0.0040695,-0.07579516151347421
-0.00406925,-0.3145444404964655
-0.004069,-0.2512371563653095
-0.00406875,-0.1061018400870375
-0.0040685,-0.3795354289925406
-0.00406825,-0.1300104420723762
-0.004068,-0.2152058829508784
-0.00406775,-0.3401367468472516
-0.0040675,-0.07242775278310765
-0.00406725,-0.334075411132395
-0.004067,-0.2259815908880208
-0.00406675,-0.1219286611194965
-0.0040665,-0.3808823924846874
-0.00406625,-0.111152953182814
-0.004066,-0.2411349301744738
-0.00406575,-0.3226262214493452
-0.0040655,-0.07411145714879454
-0.00406525,-0.3509124547839212
-0.004065,-0.1993790619179281
-0.00406475,-0.1424698543747327
-0.0040645,-0.3761680202617489
-0.00406425,-0.09633635476871039
-0.004064,-0.2677374591443697
-0.00406375,-0.3004013238285301
-0.0040635,-0.08286671984763982
-0.00406325,-0.3616881627215978
-0.004063,-0.1764806825514206
-0.00406275,-0.1683989015985701
-0.0040625,-0.3704434254205509
-0.00406225,-0.08219323810117074
-0.004062,-0.2909725793838711
-0.00406175,-0.2754824992242413
-0.0040615,-0.08993827818101385
-0.00406125,-0.3765047611347965
-0.004061,-0.1488679309628433
-0.00406075,-0.189613576599865
-0.0040605,-0.3559635678799746
-0.00406025,-0.07478493889480278
-0.00406,-0.3158914039881735
-0.00405975,-0.2509004154925369
-0.0040595,-0.1054283583412001
-0.00405925,-0.3802089107381141
-0.004059,-0.1286634785802296
-0.00405875,-0.2165528464427977
-0.0040585,-0.342830673831056
-0.00405825,-0.07411145714829104
-0.004058,-0.335759115497775
-0.00405775,-0.2256448500146012
-0.0040575,-0.1232756246118293
-0.00405725,-0.3808823924846874
-0.004057,-0.1077855444519569
-0.00405675,-0.2431553754128372
-0.0040565,-0.321952739703272
-0.00405625,-0.0761319023865108
-0.004056,-0.353606381768433
-0.00405575,-0.1970218758069563
-0.0040555,-0.1448270404859893
-0.00405525,-0.377178242881284
-0.004055,-0.09431590953080891
-0.00405475,-0.2694211635095531
-0.0040545,-0.301074805574999
-0.00405425,-0.08151975635560881
-0.004054,-0.3626983853401963
-0.00405375,-0.174796978186252
-0.0040535,-0.1670519381064088
-0.00405325,-0.371453648039289
-0.004053,-0.08488716508546412
-0.00405275,-0.2906358385108627
-0.0040525,-0.2758192400969122
-0.00405225,-0.09027501905438795
-0.004052,-0.3808823924846874
-0.00405175,-0.1508883762006492
-0.0040515,-0.1912972809649747
-0.00405125,-0.3492287504192413
-0.004051,-0.07175427103703425
-0.00405075,-0.3246466666874414
-0.0040505,-0.2566250103342838
-0.00405025,-0.1434800769938427
-0.00405,-0.2522473789846835
-0.00404975,-0.2421451527936022
-0.0040495,-0.2347368535867773
-0.00404925,-0.2209304777922743
-0.004049,-0.2138589194585374
-0.00404875,-0.2320429266024508
-0.0040485,-0.2276652952530074
-0.00404825,-0.2347368535867577
-0.004048,-0.2239611456496238
-0.00404775,-0.2219407004113843
-0.0040475,-0.2256448500147874
-0.00404725,-0.2276652952530141
-0.004047,-0.231369444856404
-0.00404675,-0.2286755178721174
-0.0040465,-0.2259815908878218
-0.00404625,-0.2246346273956799
-0.004046,-0.2269918135069342
-0.00404575,-0.230022481364264
-0.0040455,-0.2286755178721198
-0.00404525,-0.2300224813642615
-0.004045,-0.2236244047765674
-0.00404475,-0.2276652952530098
-0.0040445,-0.2290122587451515
-0.00404425,-0.2273285543799708
-0.004044,-0.229012258745154
-0.00404375,-0.2229509230304998
-0.0040435,-0.2259815908878242
-0.00404325,-0.2273285543799708
-0.004043,-0.2290122587451595
-0.00404275,-0.2320429266024784
-0.0040425,-0.2263183317608608
-0.00404225,-0.2239611456496042
-0.004042,-0.2199202551731876
-0.00404175,-0.2327164083485573
-0.0040415,-0.2337266309676673
-0.00404125,-0.2296857404912188
-0.004041,-0.2249713682687228
-0.00404075,-0.2131854377124311
-0.0040405,-0.2172263281888709
-0.00404025,-0.2434921162858529
-0.00404,-0.3108402908930623
-0.00403975,-0.05053959603572489
-0.0040395,-0.3485552686729482
-0.00403925,-0.2276652952532273
-0.004039,-0.133377850802743
-0.00403875,-0.3728006115318074
-0.0040385,-0.1030711722299341
-0.00403825,-0.2441655980318038
-0.004038,-0.3226262214493452
-0.00403775,-0.0798360519904048
-0.0040375,-0.3495654912917875
-0.00403725,-0.1956749123145247
-0.004037,-0.1431433361208061
-0.00403675,-0.3768415020078223
-0.0040365,-0.0959996138956738
-0.00403625,-0.2711048678747365
-0.004036,-0.2956869516060174
-0.00403575,-0.07848908849816266
-0.0040355,-0.3670760166901843
-0.00403525,-0.1734500146941054
-0.004035,-0.1687356424716006
-0.00403475,-0.3667392758171477
-0.0040345,-0.07983605198991417
-0.00403425,-0.2916460611299415
-0.004034,-0.2744722766051343
-0.00403375,-0.09465265040352699
-0.0040335,-0.3754945385156849
-0.00403325,-0.1468474857246252
-0.004033,-0.1902870583459382
-0.00403275,-0.3515859365304979
-0.0040325,-0.07949931111731348
-0.00403225,-0.3192588127185425
-0.004032,-0.2461860432700236
-0.00403175,-0.1050916174681511
-0.0040315,-0.3731373524043565
-0.00403125,-0.1290002194532662
-0.004031,-0.2242978865226408
-0.00403075,-0.3475450460535668
-0.0040305,-0.07747886587914887
-0.00403025,-0.2859214662883494
-0.00403,-0.2367572988249991
-0.00402975,-0.2377675214441055
-0.0040295,-0.2024097297752581
-0.00402925,-0.2256448500147874
-0.004029,-0.2293489996182073
-0.00402875,-0.2384410031901805
-0.0040285,-0.2320429266024839
-0.00402825,-0.2162161055697771
-0.004028,-0.2249713682686983
-0.00402775,-0.2222774412844208
-0.0040275,-0.2370940396980339
-0.00402725,-0.232042926602468
-0.004027,-0.2232876639035308
-0.00402675,-0.2222774412844208
-0.0040265,-0.2189100325540849
-0.00402625,-0.2357470762058567
-0.004026,-0.2344001127137405
-0.00402575,-0.2330531492215939
-0.0040255,-0.226655072633909
-0.00402525,-0.1653682337412254
-0.004025,-0.2956869516064125
-0.00402475,-0.2771662035890232
-0.0040245,-0.07209101191044409
-0.00402425,-0.375157797643064
-0.004024,-0.1552660075501258
-0.00402375,-0.1983688392987397
-0.0040235,-0.3563003087530112
-0.00402325,-0.07040730754488767
-0.004023,-0.3142076996233106
-0.00402275,-0.2492167111274718
-0.0040225,-0.1121631758014334
-0.00402225,-0.380208910738614
-0.004022,-0.1249593289772908
-0.00402175,-0.2168895873158343
-0.0040215,-0.336769338116885
-0.00402125,-0.07916257024430874
-0.004021,-0.3364325972433803
-0.00402075,-0.2236244047765674
-0.0040205,-0.1229388837390684
-0.00402025,-0.3768415020077855
-0.00402,-0.11047947143625
-0.00401975,-0.2461860432700236
-0.0040195,-0.3206057762106789
-0.00401925,-0.07512167976784734
-0.004019,-0.3502389730383513
-0.00401875,-0.1956749123144408
-0.0040185,-0.1495414127085866
-0.00401825,-0.375157797643064
-0.004018,-0.09397916865745382
-0.00401775,-0.2670639773983554
-0.0040175,-0.299391101209757
-0.00401725,-0.07916257024384077
-0.004017,-0.3650555714516145
-0.00401675,-0.1727765329483817
-0.0040165,-0.1710928285828488
-0.00401625,-0.3640453488328543
-0.004016,-0.0832034607206654
-0.00401575,-0.2946767289873025
-0.0040155,-0.2700946452556265
-0.00401525,-0.09465265040403661
-0.004015,-0.3748210567695178
-0.00401475,-0.1485311900893926
-0.0040145,-0.1963483940605981
-0.00401425,-0.3519226774030342
-0.004014,-0.0768053841325842
-0.00401375,-0.3182485900998686
-0.0040135,-0.2455125615237035
-0.00401325,-0.1098059896904237
-0.004013,-0.379198688119504
-0.00401275,-0.1263062924689731
-0.0040125,-0.2216039595385559
-0.00401225,-0.3360958563708116
-0.004012,-0.07478493889436422
-0.00401175,-0.3387897833548888
-0.0040115,-0.2199202551733805
-0.00401125,-0.1279899968341565
-0.004011,-0.3788619472464674
-0.00401075,-0.1064385809603058
-0.0040105,-0.247869747635207
-0.00401025,-0.3155546631155755
-0.00401,-0.0794993111173784
-0.00400975,-0.3549533452603634
-0.0040095,-0.1939912079493415
-0.00400925,-0.1468474857242092
-0.004009,-0.3738108341505046
-0.00400875,-0.09566287302263721
-0.0040085,-0.2754824992242131
-0.00400825,-0.2940032472408471
-0.004008,-0.08387694246673613
-0.00400775,-0.3640453488328543
-0.0040075,-0.168735642471592
-0.00400725,-0.1758072008053491
-0.004007,-0.3704434254205509
-0.00400675,-0.08354020159331732
-0.0040065,-0.2953502107333195
-0.00400625,-0.2643700504140595
-0.004006,-0.09566287302263721
-0.00400575,-0.3893009143101755
-0.0040055,-0.1539190440584073
-0.00400525,-0.1966851349336347
-0.004005,-0.2549413059689769
-0.00400475,-0.247533006762111
-0.0040045,-0.2148691420776737
-0.00400425,-0.2216039595383477
-0.004004,-0.2185732916810496
-0.00400375,-0.236083817078892
-0.0040035,-0.2323796674755207
-0.00400325,-0.230022481364264
-0.004003,-0.2246346273956725
-0.00400275,-0.2219407004113892
-0.0040025,-0.2286755178721174
-0.00400225,-0.2290122587451564
-0.004002,-0.2303592222372983
-0.00400175,-0.2246346273956774
-0.0040015,-0.2273285543799708
-0.00400125,-0.2263183317608632
-0.004001,-0.2276652952530074
-0.00400075,-0.2310327039833739
-0.0040005,-0.224634627395686
-0.00400025,-0.2293489996181822
-0.004,-0.2256448500147874
-0.00399975,-0.2263183317608608
-0.0039995,-0.2300224813642572
-0.00399925,-0.2263183317608608
-0.003999,-0.2276652952530074
-0.00399875,-0.2269918135069312
-0.0039985,-0.2253081091417539
-0.00399825,-0.2280020361260442
-0.003998,-0.2269918135069342
-0.00399775,-0.2263183317608626
-0.0039975,-0.2273285543799708
-0.00399725,-0.2263183317608608
-0.003997,-0.2286755178721143
-0.00399675,-0.2269918135069373
-0.0039965,-0.2259815908878242
-0.00399625,-0.2280020361260442
-0.003996,-0.2259815908878279
-0.00399575,-0.2269918135069342
-0.0039955,-0.230022481364264
-0.00399525,-0.2266550726339011
-0.003995,-0.2286755178721137
-0.00399475,-0.2273285543799708
-0.0039945,-0.2236244047765674
-0.00399425,-0.2290122587451442
-0.003994,-0.2263183317608608
-0.00399375,-0.2273285543799708
-0.0039935,-0.2306959631103306
-0.00399325,-0.2269918135069409
-0.003993,-0.2286755178721174
-0.00399275,-0.2266550726338968
-0.0039925,-0.2263183317608614
-0.00399225,-0.2296857404912274
-0.003992,-0.2269918135069342
-0.00399175,-0.227328554379972
-0.0039915,-0.228002036126043
-0.00399125,-0.2273285543799708
-0.003991,-0.230022481364259
-0.00399075,-0.2273285543799757
-0.0039905,-0.2246346273956774
-0.00399025,-0.2266550726338974
-0.00399,-0.2276652952530062
-0.00398975,-0.2269918135069354
-0.0039895,-0.2317061857294473
-0.00398925,-0.2266550726338986
-0.003989,-0.2273285543799696
-0.00398875,-0.2263183317608608
-0.0039885,-0.2253081091417508
-0.00398825,-0.2323796674755097
-0.003988,-0.2263183317608608
-0.00398775,-0.2283387769990808
-0.0039875,-0.2239611456496104
-0.00398725,-0.2273285543799647
-0.003987,-0.2296857404912274
-0.00398675,-0.2266550726338974
-0.0039865,-0.2310327039833568
-0.00398625,-0.2216039595383477
-0.003986,-0.2222774412844208
-0.00398575,-0.2266550726339011
-0.0039855,-0.2286755178721137
-0.00398525,-0.2835642801770928
-0.003985,-0.133377850802743
-0.00398475,-0.2340633718409152
-0.0039845,-0.3502389730383513
-0.00398425,-0.06939708492577767
-0.003984,-0.326330371052547
-0.00398375,-0.2155426238238892
-0.0039835,-0.131357405564523
-0.00398325,-0.3876172099454205
-0.003983,-0.1023976904838891
-0.00398275,-0.2515738972386101
-0.0039825,-0.3064626595435855
-0.00398225,-0.07108078929149642
-0.003982,-0.3653923123244656
-0.00398175,-0.192644244457195
-0.0039815,-0.1556027484231624
-0.00398125,-0.3566370496256821
-0.003981,-0.08252997897420733
-0.00398075,-0.2865949480344228
-0.0039805,-0.297033915098264
-0.00398025,-0.1347248142951848
-0.00398,-0.2441655980318038
-0.00397975,-0.243828857158767
-0.0039795,-0.236420557951974
-0.00397925,-0.2178998099349443
-0.003979,-0.2145324012045777
-0.00397875,-0.231032703983377
-0.0039785,-0.2327164083485543
-0.00397825,-0.2350735944598139
-0.003978,-0.2199202551731673
-0.00397775,-0.2216039595383446
-0.0039775,-0.2296857404912274
-0.00397725,-0.2239611456496042
-0.003977,-0.2330531492215866
-0.00397675,-0.2290122587451613
-0.0039765,-0.2276652952530074
-0.00397625,-0.2239611456496006
-0.003976,-0.2219407004113879
-0.00397575,-0.2306959631103374
-0.0039755,-0.2286755178721174
-0.00397525,-0.2259815908878218
-0.003975,-0.2246346273956799
-0.00397475,-0.2256448500147874
-0.0039745,-0.2276652952530104
-0.00397425,-0.2293489996181877
-0.003974,-0.229012258745154
-0.00397375,-0.2249713682687142
-0.0039735,-0.2327164083485328
-0.00397325,-0.2192467734270909
-0.003973,-0.2303592222373008
-0.00397275,-0.2290122587451552
-0.0039725,-0.2296857404912261
-0.00397225,-0.2273285543799708
-0.003972,-0.2199202551731643
-0.00397175,-0.2290122587451552
-0.0039715,-0.2296857404912274
-0.00397125,-0.2303592222373008
-0.003971,-0.2313694448563758
-0.00397075,-0.2121752150933561
-0.0039705,-0.2195835143001277
-0.00397025,-0.2226141821574574
-0.00397,-0.3313814841478079
-0.00396975,-0.06165204484593456
-0.0039695,-0.3121872543852089
-0.00396925,-0.2677374591440868
-0.003969,-0.1121631758017164
-0.00396875,-0.3643820897058909
-0.0039685,-0.1330411099297062
-0.00396825,-0.203756693267276
-0.003968,-0.3492287504192413
-0.00396775,-0.08522390595850071
-0.0039675,-0.3216159988300767
-0.00396725,-0.2344001127138992
-0.003967,-0.1087957670710669
-0.00396675,-0.3815558742307605
-0.0039665,-0.1273165150885455
-0.00396625,-0.2313694448564108
-0.003966,-0.3276773345448951
-0.00396575,-0.06097856310036037
-0.0039655,-0.335422374624239
-0.00396525,-0.2317061857294473
-0.003965,-0.2047669158865146
-0.00396475,-0.206787361124731
-0.0039645,-0.2434921162857304
-0.00396425,-0.2323796674755207
-0.003964,-0.2320429266024631
-0.00396375,-0.2205937369192585
-0.0039635,-0.2222774412844208
-0.00396325,-0.2269918135069416
-0.003963,-0.2310327039833666
-0.00396275,-0.2286755178721174
-0.0039625,-0.2249713682687142
-0.00396225,-0.2249713682687136
-0.003962,-0.224634627395678
-0.00396175,-0.2306959631103374
-0.0039615,-0.2290122587451521
-0.00396125,-0.228002036126046
-0.003961,-0.2263183317608608
-0.00396075,-0.2236244047765674
-0.0039605,-0.2300224813642597
-0.00396025,-0.2276652952530117
-0.00396,-0.2269918135069342
-0.00395975,-0.2310327039833623
-0.0039595,-0.224634627395689
-0.00395925,-0.2276652952530074
-0.003959,-0.229012258745154
-0.00395875,-0.2256448500147935
-0.0039585,-0.229012258745154
-0.00395825,-0.2266550726338974
-0.003958,-0.2269918135069366
-0.00395775,-0.2283387769990783
-0.0039575,-0.2266550726338974
-0.00395725,-0.2273285543799708
-0.003957,-0.2276652952530056
-0.00395675,-0.2266550726338974
-0.0039565,-0.2283387769990808
-0.00395625,-0.2256448500147898
-0.003956,-0.2269918135069318
-0.00395575,-0.2310327039833739
-0.0039555,-0.2236244047765674
-0.00395525,-0.227665295253
-0.003955,-0.2286755178721174
-0.00395475,-0.2239611456496042
-0.0039545,-0.229348999618184
-0.00395425,-0.2256448500147941
-0.003954,-0.2276652952530074
-0.00395375,-0.2293489996181908
-0.0039535,-0.2256448500147941
-0.00395325,-0.2286755178721174
-0.003953,-0.2256448500147874
-0.00395275,-0.229012258745157
-0.0039525,-0.2306959631103343
-0.00395225,-0.2259815908878242
-0.003952,-0.2283387769990808
-0.00395175,-0.2300224813642609
-0.0039515,-0.2269918135069342
-0.00395125,-0.2259815908878242
-0.003951,-0.2256448500147954
-0.00395075,-0.230022481364256
-0.0039505,-0.2320429266024839
-0.00395025,-0.2269918135069342
-0.00395,-0.2269918135069342
-0.00394975,-0.2266550726338974
-0.0039495,-0.2229509230304942
-0.00394925,-0.2286755178721174
-0.003949,-0.2286755178721174
-0.00394875,-0.2253081091417508
-0.0039485,-0.2293489996181748
-0.00394825,-0.2205937369192536
-0.003948,-0.2283387769990808
-0.00394775,-0.2306959631103374
-0.0039475,-0.2296857404912292
-0.00394725,-0.2306959631103355
-0.003947,-0.2205937369192377
-0.00394675,-0.2236244047765723
-0.0039465,-0.2263183317608559
-0.00394625,-0.2330531492215939
-0.003946,-0.2340633718407039
-0.00394575,-0.2232876639035235
-0.0039455,-0.2192467734270909
-0.00394525,-0.1771541642975085
-0.003945,-0.3438408964503467
-0.00394475,-0.1744602373135235
-0.0039445,-0.1431433361208061
-0.00394425,-0.373137352404844
-0.003944,-0.1023976904837011
-0.00394375,-0.2842377619231662
-0.0039435,-0.2808703531927996
-0.00394325,-0.08185649722865725
-0.003943,-0.3694332028009178
-0.00394275,-0.1596436388996023
-0.0039425,-0.187593131361645
-0.00394225,-0.3593309766098273
-0.003942,-0.0768053841325842
-0.00394175,-0.3071361412896589
-0.0039415,-0.2586454555721001
-0.00394125,-0.1047548765949068
-0.003941,-0.3768415020082474
-0.00394075,-0.134388073421853
-0.0039405,-0.2071241019976389
-0.00394025,-0.3424939329585082
-0.00394,-0.07848908849776759
-0.00393975,-0.3280140754177596
-0.0039395,-0.2333898900948029
-0.00393925,-0.11856125238913
-0.003939,-0.3758312793891374
